…
This is a basic example which shows you how to solve a common problem:

``` r
library(rcompilertools)

some_code <- quote({
  x <- 1
  for (i in 1:10) x <- x + 1
  x
})

tidy_bytecode(some_code)
#> $code
#> # A tibble: 28 x 3
#>    op_code     op_code_int type    
#>    <chr>             <int> <chr>   
#>  1 12                   12 OPERAND 
#>  2 LDCONST.OP           16 OPERATOR
#>  3 1                     1 OPERAND 
#>  4 SETVAR.OP            22 OPERATOR
#>  5 3                     3 OPERAND 
#>  6 POP.OP                4 OPERATOR
#>  7 LDCONST.OP           16 OPERATOR
#>  8 5                     5 OPERAND 
#>  9 STARTFOR.OP          11 OPERATOR
#> 10 9                     9 OPERAND 
#> # … with 18 more rows
…
You can also get all OP codes

``` r
opcodes()
#> # A tibble: 129 x 3
#>    name               args  code
#>    <chr>             <int> <int>
#>  1 BCMISMATCH.OP         0     0
#>  2 RETURN.OP             0     1
#>  3 GOTO.OP               1     2
#>  4 BRIFNOT.OP            2     3
#>  5 POP.OP                0     4
#>  6 DUP.OP                0     5
#>  7 PRINTVALUE.OP         0     6
#>  8 STARTLOOPCNTXT.OP     2     7
#>  9 ENDLOOPCNTXT.OP       1     8
#> 10 DOLOOPNEXT.OP         0     9
#> # … with 119 more rows
```
…
